<svg width="10" height="7" viewBox="0 0 10 7" fill="none" xmlns="http://www.w3.org/2000/svg">
<path d="M7.85096 0.321759C8.26016 -0.113089 8.95676 -0.0947584 9.34252 0.361008L9.41335 0.444695C9.74609 0.837823 9.72582 1.41938 9.36651 1.78838L4.76696 6.51194C4.37437 6.91512 3.72655 6.91508 3.334 6.51187L0.647212 3.7521C0.282193 3.37717 0.267942 2.78423 0.614527 2.39219L0.665885 2.3341C1.05715 1.89153 1.74474 1.88276 2.14716 2.31521L4.05045 4.36054L7.85096 0.321759Z" fill="#F5F5F5"/>
</svg>
