<svg width="12" height="8" viewBox="0 0 12 8" fill="none" xmlns="http://www.w3.org/2000/svg">
<path d="M6.285 4.8825L10.106 1.0615C10.52 0.6475 11.192 0.6475 11.606 1.0615C12.02 1.4755 12.02 2.1475 11.606 2.5615L6.992 7.1755C6.602 7.5665 5.969 7.5665 5.578 7.1755L0.964004 2.5615C0.550004 2.1475 0.550005 1.4755 0.964004 1.0615C1.378 0.647499 2.05 0.647499 2.464 1.0615L6.285 4.8825Z" fill="#00005B"/>
</svg>
