<svg width="36" height="37" viewBox="0 0 36 37" fill="none" xmlns="http://www.w3.org/2000/svg">
<circle cx="18" cy="18.4316" r="12" fill="#27AE60"/>
<path d="M27.8388 5.09178C28.008 5.2131 28.1772 5.33443 28.3371 5.46425" stroke="#00005B" stroke-width="2" stroke-linecap="round" stroke-linejoin="round"/>
<path d="M32.2786 9.43256C33.1348 10.7873 33.7914 12.2584 34.228 13.8004C36.2718 20.9632 33.3769 28.6189 27.1049 32.6378C20.8328 36.6566 12.6676 36.0879 7.01371 31.2383C1.35979 26.3887 -0.445128 18.4056 2.57257 11.5953C5.59026 4.78505 12.7166 0.758855 20.1075 1.68854" stroke="#00005B" stroke-width="2" stroke-linecap="round" stroke-linejoin="round"/>
<path d="M16.975 20.5066L22.675 14.8066C23.175 14.3066 23.975 14.3066 24.575 14.8066C25.175 15.3066 25.075 16.1066 24.575 16.7066L17.975 23.3066C17.475 23.8066 16.675 23.8066 16.075 23.3066L12.375 19.6066C11.875 19.1066 11.875 18.3066 12.375 17.7066C12.875 17.2066 13.675 17.2066 14.275 17.7066L16.975 20.5066Z" fill="white"/>
</svg>
