<svg width="34" height="37" viewBox="0 0 34 37" fill="none" xmlns="http://www.w3.org/2000/svg">
<g clip-path="url(#clip0)">
<path d="M15.3962 29.1549C13.2452 29.6077 11.0943 30.0606 8.94336 30.5134C9.39619 30.9662 9.84902 31.1926 10.5283 31.0794C10.9811 30.9662 11.4339 30.853 11.8868 30.853C15.3962 30.1738 18.9056 29.4945 22.3019 28.7021C23.3207 28.4757 23.8868 27.6832 23.6603 26.6643C23.4339 25.7587 22.5283 25.1927 21.6226 25.4191C20.1509 25.7587 18.7924 25.9851 17.3207 26.3247C16.7547 26.4379 16.1886 26.5511 15.6226 26.6643C15.7358 27.2304 15.849 27.7964 15.9622 28.3625C15.9622 28.7021 15.7358 29.0417 15.3962 29.1549Z" fill="#FFEC00"/>
<path d="M4.52833 29.4955C7.58494 28.9294 10.5283 28.2502 13.5849 27.6842C13.5849 27.1181 13.4717 26.8917 13.0189 26.6653C10.868 25.6464 8.71701 24.6276 6.45286 23.6087C4.64154 22.703 3.62267 21.0049 3.84909 19.0804C4.0755 17.1559 5.5472 15.6842 7.47173 15.3445C8.15097 15.2313 8.94343 15.0049 9.73588 14.8917C9.50947 14.7785 9.39626 14.6653 9.28305 14.6653C8.26418 14.2125 7.35852 13.7596 6.33965 13.3068C4.52833 12.4011 3.62267 10.703 3.84909 8.7785C4.0755 6.96718 5.43399 5.49548 7.35852 5.04265C9.84909 4.47661 12.4529 4.02378 14.9434 3.45775C15.0566 3.45775 15.2831 3.34454 15.3963 3.34454V1.75963C15.5095 1.1936 15.8491 0.853973 16.4151 0.853973H16.7547C17.2076 0.853973 17.6604 1.1936 17.6604 1.75963V2.7785C20.717 2.09926 23.7736 1.53322 26.9434 0.853973C27.3963 0.740765 27.8491 1.08039 27.9623 1.53322C28.4151 3.79737 28.868 6.06152 29.3208 8.32567C29.434 8.7785 29.0944 9.23133 28.6415 9.34454C26.717 9.68416 24.7925 10.137 22.868 10.4766C22.9812 10.5898 23.0944 10.5898 23.0944 10.703C24.1132 11.1559 25.1321 11.7219 26.0378 12.1747C27.7359 12.9672 28.7547 14.7785 28.5283 16.5898C28.3019 18.5143 26.9434 19.986 25.0189 20.4389C24.3397 20.5521 23.6604 20.6653 22.9812 20.8917C22.868 20.8917 22.7547 20.8917 22.6415 21.0049C23.2076 21.3445 23.7736 21.571 24.2264 21.7974C24.7925 22.0238 25.3585 22.3634 25.9246 22.5898C27.7359 23.4955 28.7547 25.1936 28.4151 27.2313C28.1887 29.0426 26.717 30.5143 24.7925 30.854C22.5283 31.3068 20.151 31.7596 17.8868 32.2125C17.5472 32.3257 17.434 32.3257 17.434 32.6653C17.434 33.6842 17.434 33.6842 18.4529 34.137H18.5661C19.5849 34.703 20.4906 34.5898 21.5095 34.137C22.868 33.4577 24.2264 33.4577 25.4717 34.137C26.6038 34.703 27.7359 34.5898 28.868 34.0238C30.1132 33.4577 31.3585 33.5709 32.6038 34.137C33.0566 34.3634 33.2831 34.8162 33.0566 35.2691L32.9434 35.6087C32.717 36.0615 32.2642 36.2879 31.8114 36.0615C31.0189 35.7219 30.3397 35.7219 29.5472 36.0615C29.2076 36.2879 28.7547 36.4011 28.3019 36.5143C27.5095 36.7408 26.717 36.7408 25.9246 36.5143C25.6981 36.4011 25.4717 36.4011 25.2453 36.2879C24.2264 35.7219 23.0944 35.8351 22.0755 36.2879C20.8302 36.9672 19.4717 36.854 18.2264 36.2879C18 36.1747 17.7736 36.0615 17.434 35.9483C16.868 35.7219 16.3019 35.7219 15.7359 35.9483C15.3963 36.0615 14.9434 36.2879 14.6038 36.4011C13.5849 36.7408 12.5661 36.7408 11.5472 36.4011C11.3208 36.2879 11.0944 36.1747 10.868 36.0615C9.9623 35.6087 9.05663 35.6087 8.26418 36.0615C8.03777 36.1747 7.81135 36.2879 7.58494 36.2879C6.56607 36.6276 5.5472 36.7408 4.64154 36.2879C3.50946 35.8351 2.4906 35.4955 1.35852 35.9483C0.905691 36.1747 0.45286 35.9483 0.226445 35.4955L0.113238 35.1559C-0.113177 34.703 0.113238 34.2502 0.566068 34.0238C1.69814 33.5709 2.71701 33.3445 3.96229 33.7974C4.30192 33.9106 4.64154 34.0238 4.98116 34.2502C5.88682 34.703 6.67928 34.5898 7.58494 34.0238C5.5472 33.4577 4.41512 32.2125 3.96229 30.4011C3.73588 30.0615 4.0755 29.6087 4.52833 29.4955ZM24.1132 13.986C24 13.986 23.6604 13.986 23.434 14.0993C18.2264 15.1181 13.0189 16.2502 7.81135 17.2691C6.45286 17.4955 5.66041 18.7408 6.00003 19.986C6.22645 21.2313 7.47173 21.9106 8.71701 21.6842C12.1132 21.0049 15.3963 20.3257 18.7925 19.6464C20.717 19.1936 22.7547 18.854 24.6793 18.4011C25.8114 18.1747 26.4906 17.0427 26.3774 16.0238C26.3774 14.8917 25.4717 13.986 24.1132 13.986ZM21.9623 4.13699C21.8491 4.13699 21.7359 4.13699 21.6227 4.2502C18.3397 4.92944 15.0566 5.60869 11.7736 6.28793C10.4151 6.40114 9.16984 6.62756 7.92456 6.96718C6.56607 7.19359 5.77362 8.55209 6.11324 9.79737C6.45286 10.9294 7.58494 11.6087 8.94343 11.2691C12.9057 10.4766 16.868 9.68416 20.8302 8.89171C21.5095 8.7785 22.1887 8.66529 22.868 8.43888C22.5283 6.96718 22.1887 5.60869 21.9623 4.13699ZM15.2831 29.4955C12.3397 30.0615 9.39626 30.7408 6.45286 31.3068C7.13211 31.986 7.81135 32.2125 8.6038 32.0993C9.16984 31.986 9.84909 31.8728 10.4151 31.7596C15.1698 30.854 19.8114 29.8351 24.5661 28.9294C25.9246 28.703 26.717 27.4577 26.3774 26.2125C26.151 24.9672 24.9057 24.2879 23.6604 24.5143C21.7359 24.9672 19.8114 25.3068 17.8868 25.6464C17.0944 25.7596 16.3019 25.986 15.5095 26.0993C15.6227 26.8917 15.8491 27.6842 15.9623 28.4766C16.0755 28.9294 15.7359 29.3823 15.2831 29.4955ZM24.9057 8.09926L26.9434 7.64643C26.6038 6.17473 26.3774 4.70303 26.0378 3.23133C25.3585 3.34454 24.6793 3.45775 24 3.68416C24.3397 5.15586 24.5661 6.62756 24.9057 8.09926ZM10.7547 33.7974C11.3208 34.137 12 34.3634 12.5661 34.5898C12.9057 34.703 13.3585 34.703 13.6981 34.5898C14.2642 34.4766 14.717 34.2502 15.2831 34.0238C15.3963 34.0238 15.5095 33.7974 15.5095 33.7974C15.5095 33.571 15.5095 33.2313 15.5095 33.0049C13.9246 33.1181 12.3397 33.4577 10.7547 33.7974ZM15.5095 22.4766C14.0378 22.8162 12.6793 23.0427 11.0944 23.3823C11.7736 23.7219 12.4529 24.0615 13.0189 24.2879C13.1321 24.2879 13.2453 24.2879 13.2453 24.2879C13.9246 24.1747 14.4906 24.0615 15.1698 23.9483C15.283 23.9483 15.3963 23.8351 15.3963 23.7219C15.5095 23.2691 15.5095 22.9294 15.5095 22.4766ZM11.3208 12.9672C11.3208 13.0804 11.3208 13.0804 11.3208 12.9672C11.8868 13.3068 12.4529 13.6464 13.1321 13.986C13.2453 13.986 13.3585 13.986 13.4717 13.986C14.151 13.8728 14.717 13.7596 15.3963 13.5332C15.5095 13.5332 15.6227 13.42 15.6227 13.3068C15.6227 12.9672 15.6227 12.5143 15.6227 12.0615C14.0378 12.4011 12.6793 12.7408 11.3208 12.9672ZM21.283 12.4011C20.717 11.9483 20.0378 11.7219 19.4717 11.3823C19.3585 11.3823 19.2453 11.3823 19.2453 11.3823C18.7925 11.4955 18.4529 11.4955 18 11.6087C17.8868 11.6087 17.7736 11.7219 17.7736 11.8351C17.7736 12.1747 17.7736 12.6276 17.7736 13.0804L21.283 12.4011ZM21.1698 22.8162C21.1698 22.703 21.1698 22.703 21.1698 22.8162C20.6038 22.3634 19.9246 22.137 19.3585 21.7974C19.2453 21.7974 19.2453 21.7974 19.1321 21.7974C18.6793 21.9106 18.3397 21.9106 17.8868 22.0238C17.7736 22.0238 17.6604 22.137 17.6604 22.2502C17.6604 22.703 17.6604 23.0427 17.6604 23.4955C18.9057 23.2691 20.0378 23.0427 21.1698 22.8162Z" fill="#00005B"/>
<path d="M24.9057 8.09839L26.9434 7.64556C26.6038 6.17387 26.3774 4.70217 26.0377 3.23047C25.3585 3.34368 24.6792 3.45688 24 3.6833C24.3396 5.155 24.566 6.6267 24.9057 8.09839Z" fill="#F2609E"/>
<path d="M22.0755 4.58984C21.9623 4.58984 21.8491 4.58984 21.7359 4.58984C19.1321 5.15588 16.5284 5.60871 13.9246 6.17475C12.9057 6.40116 11.8869 6.62758 10.868 6.74079C9.73592 6.9672 9.16988 7.98607 9.50951 9.00494C9.73592 9.9106 10.6416 10.3634 11.7737 10.2502C14.9435 9.57098 18.1133 9.00494 21.2831 8.32569C21.8491 8.21249 22.302 8.09928 22.868 7.98607C22.5284 6.854 22.302 5.72192 22.0755 4.58984Z" fill="#FFEC00"/>
<path d="M22.1887 15.0059C22.0755 15.0059 21.8491 15.0059 21.7359 15.1191C17.8868 15.9115 13.9246 16.704 10.0755 17.4964C9.05666 17.7228 8.49062 18.5153 8.71704 19.5342C8.94345 20.4398 9.84911 21.0059 10.7548 20.7794C13.2453 20.2134 15.7359 19.7606 18.3397 19.1945C19.8114 18.8549 21.2831 18.6285 22.7548 18.2889C23.5472 18.0625 24.1133 17.27 24.0001 16.4776C23.7736 15.5719 23.0944 15.0059 22.1887 15.0059Z" fill="#FFEC00"/>
</g>
<defs>
<clipPath id="clip0">
<rect width="33.1698" height="36" fill="white" transform="translate(0 0.853516)"/>
</clipPath>
</defs>
</svg>
